…
test_1000 <- generate_n_samples(1000)
test_30 <- generate_n_samples(30)

test_1000
```

    ## # A tibble: 1,000 x 4
    ##    normal exponential chisqr uniform
    ##     <dbl>       <dbl>  <dbl>   <dbl>
    ##  1   64.0      1.75     24.9    9.23
    ##  2   66.2      0.278    32.2   12.3 
    ##  3   67.5      0.396    28.6    8.44
    ##  4   66.5      4.07     24.1   14.2 
    ##  5   66.8      1.57     27.1    9.79
    ##  6   68.4      0.138    26.7   13.2 
    ##  7   67.3      1.76     20.3    8.04
    ##  8   65.7      0.831    20.6    7.61
    ##  9   65.6      1.03     14.6   13.8 
    ## 10   65.2      0.0719   27.5    8.26
    ## # … with 990 more rows

``` r
test_30
```

    ## # A tibble: 30 x 4
    ##    normal exponential chisqr uniform
    ##     <dbl>       <dbl>  <dbl>   <dbl>
    ##  1   65.7       3.37    18.2    8.13
    ##  2   62.8       1.14    30.3   14.5 
    ##  3   62.6       0.247   18.9   14.6 
    ##  4   61.0       1.42    27.8    7.03
    ##  5   68.4       1.33    22.8    9.51
    ##  6   66.0       3.29    29.9   15.2 
    ##  7   62.8       1.30    32.6   13.0 
    ##  8   63.1       0.240   22.3    8.08
    ##  9   66.3       4.99    25.1    7.97
    ## 10   65.3       1.30    19.6   13.7 
    ## # … with 20 more rows
…
Continuing to work with your multiple distribution sample generator from
above, generate 1,000 samples from the four distributions each with size
30. We will want to continue to work with this list so be sure to assign
these samples to an appropriately named object (say,
`multiple_samples`).

``` r
multiple_samples <- map(1:1000, ~generate_n_samples(30))
head(multiple_samples)
```

    ## [[1]]
    ## # A tibble: 30 x 4
    ##    normal exponential chisqr uniform
    ##     <dbl>       <dbl>  <dbl>   <dbl>
    ##  1   61.9       1.34    37.2   15.0 
    ##  2   65.0       9.61    23.5    9.85
    ##  3   67.3       8.57    24.0   15.5 
    ##  4   61.7       0.366   17.6   11.8 
    ##  5   65.9       3.47    26.1   11.3 
    ##  6   64.7       1.82    22.0   15.2 
    ##  7   64.8       0.249   20.8   10.1 
    ##  8   64.3       0.579   44.6    9.92
    ##  9   64.9       0.106   21.3   13.6 
    ## 10   63.6       1.90    17.5   15.1 
    ## # … with 20 more rows
    ## 
    ## [[2]]
    ## # A tibble: 30 x 4
    ##    normal exponential chisqr uniform
    ##     <dbl>       <dbl>  <dbl>   <dbl>
    ##  1   62.5       1.61    29.1    7.56
    ##  2   68.2       3.40    17.3    9.86
    ##  3   64.5       7.03    22.2    9.94
    ##  4   67.3       0.415   20.9   12.0 
    ##  5   63.7       1.11    22.8   14.8 
    ##  6   62.9       6.82    16.1   13.5 
    ##  7   64.1       8.51    17.6   14.4 
    ##  8   66.9       4.42    26.0   13.5 
    ##  9   63.0       0.119   22.2    8.38
    ## 10   65.4       0.963   23.9   14.8 
    ## # … with 20 more rows
    ## 
    ## [[3]]
    ## # A tibble: 30 x 4
    ##    normal exponential chisqr uniform
    ##     <dbl>       <dbl>  <dbl>   <dbl>
    ##  1   64.0      1.83    23.7     10.4
    ##  2   63.9      2.47    22.9     12.4
    ##  3   65.1      2.26    16.8     15.7
    ##  4   64.0      2.51    16.1     15.8
    ##  5   64.4      2.33    22.8     12.6
    ##  6   63.4      1.75    17.5     12.5
    ##  7   64.7      0.435    8.42    13.7
    ##  8   64.4      7.11    42.6     11.5
    ##  9   63.5      6.65    23.9     13.1
    ## 10   64.9      0.0432  33.7     15.4
    ## # … with 20 more rows
    ## 
    ## [[4]]
    ## # A tibble: 30 x 4
    ##    normal exponential chisqr uniform
    ##     <dbl>       <dbl>  <dbl>   <dbl>
    ##  1   63.5       0.372   17.5   15.7 
    ##  2   65.1       1.35    27.2   15.0 
    ##  3   66.4       0.940   22.5   10.4 
    ##  4   64.2       2.37    21.7   11.8 
    ##  5   65.8       0.733   31.5    7.55
    ##  6   66.5       0.661   21.1    7.91
    ##  7   65.5       1.23    17.2   12.0 
    ##  8   62.1       1.53    21.5   13.0 
    ##  9   65.8       3.76    11.7    7.12
    ## 10   66.2       2.41    44.6   15.2 
    ## # … with 20 more rows
    ## 
    ## [[5]]
    ## # A tibble: 30 x 4
    ##    normal exponential chisqr uniform
    ##     <dbl>       <dbl>  <dbl>   <dbl>
    ##  1   66.4       0.263   10.8    8.80
    ##  2   67.5       2.07    23.5   10.3 
    ##  3   62.5       4.90    19.3   14.3 
    ##  4   65.6       0.617   13.9   14.2 
    ##  5   67.4       3.30    23.3   10.0 
    ##  6   63.1       0.889   23.1   15.6 
    ##  7   64.1       2.05    28.5   15.3 
    ##  8   65.9       4.23    19.8    9.70
    ##  9   63.0       1.33    12.2   14.2 
    ## 10   62.6       0.484   35.1   11.4 
    ## # … with 20 more rows
    ## 
    ## [[6]]
    ## # A tibble: 30 x 4
    ##    normal exponential chisqr uniform
    ##     <dbl>       <dbl>  <dbl>   <dbl>
    ##  1   63.5      6.75     14.6   12.5 
    ##  2   65.8      0.488    14.4   13.9 
    ##  3   63.6      1.61     19.3    7.47
    ##  4   63.6      1.14     25.4   10.8 
    ##  5   66.8      0.237    18.7    8.71
    ##  6   66.2      1.09     15.5   15.0 
    ##  7   67.9      0.0585   20.7    7.28
    ##  8   59.5      2.74     15.4   12.0 
    ##  9   68.3      0.222    33.4    8.89
    ## 10   67.3      1.29     22.5   10.9 
    ## # … with 20 more rows
…
-   median
-   midhinge
-   maximum
-   standard deviation
-   IQR

``` r
multiple_samples2 <- map(1:1000, ~generate_n_samples(30))
head(multiple_samples)
```

    ## [[1]]
    ## # A tibble: 30 x 4
    ##    normal exponential chisqr uniform
    ##     <dbl>       <dbl>  <dbl>   <dbl>
    ##  1   61.9       1.34    37.2   15.0 
    ##  2   65.0       9.61    23.5    9.85
    ##  3   67.3       8.57    24.0   15.5 
    ##  4   61.7       0.366   17.6   11.8 
    ##  5   65.9       3.47    26.1   11.3 
    ##  6   64.7       1.82    22.0   15.2 
    ##  7   64.8       0.249   20.8   10.1 
    ##  8   64.3       0.579   44.6    9.92
    ##  9   64.9       0.106   21.3   13.6 
    ## 10   63.6       1.90    17.5   15.1 
    ## # … with 20 more rows
    ## 
    ## [[2]]
    ## # A tibble: 30 x 4
    ##    normal exponential chisqr uniform
    ##     <dbl>       <dbl>  <dbl>   <dbl>
    ##  1   62.5       1.61    29.1    7.56
    ##  2   68.2       3.40    17.3    9.86
    ##  3   64.5       7.03    22.2    9.94
    ##  4   67.3       0.415   20.9   12.0 
    ##  5   63.7       1.11    22.8   14.8 
    ##  6   62.9       6.82    16.1   13.5 
    ##  7   64.1       8.51    17.6   14.4 
    ##  8   66.9       4.42    26.0   13.5 
    ##  9   63.0       0.119   22.2    8.38
    ## 10   65.4       0.963   23.9   14.8 
    ## # … with 20 more rows
    ## 
    ## [[3]]
    ## # A tibble: 30 x 4
    ##    normal exponential chisqr uniform
    ##     <dbl>       <dbl>  <dbl>   <dbl>
    ##  1   64.0      1.83    23.7     10.4
    ##  2   63.9      2.47    22.9     12.4
    ##  3   65.1      2.26    16.8     15.7
    ##  4   64.0      2.51    16.1     15.8
    ##  5   64.4      2.33    22.8     12.6
    ##  6   63.4      1.75    17.5     12.5
    ##  7   64.7      0.435    8.42    13.7
    ##  8   64.4      7.11    42.6     11.5
    ##  9   63.5      6.65    23.9     13.1
    ## 10   64.9      0.0432  33.7     15.4
    ## # … with 20 more rows
    ## 
    ## [[4]]
    ## # A tibble: 30 x 4
    ##    normal exponential chisqr uniform
    ##     <dbl>       <dbl>  <dbl>   <dbl>
    ##  1   63.5       0.372   17.5   15.7 
    ##  2   65.1       1.35    27.2   15.0 
    ##  3   66.4       0.940   22.5   10.4 
    ##  4   64.2       2.37    21.7   11.8 
    ##  5   65.8       0.733   31.5    7.55
    ##  6   66.5       0.661   21.1    7.91
    ##  7   65.5       1.23    17.2   12.0 
    ##  8   62.1       1.53    21.5   13.0 
    ##  9   65.8       3.76    11.7    7.12
    ## 10   66.2       2.41    44.6   15.2 
    ## # … with 20 more rows
    ## 
    ## [[5]]
    ## # A tibble: 30 x 4
    ##    normal exponential chisqr uniform
    ##     <dbl>       <dbl>  <dbl>   <dbl>
    ##  1   66.4       0.263   10.8    8.80
    ##  2   67.5       2.07    23.5   10.3 
    ##  3   62.5       4.90    19.3   14.3 
    ##  4   65.6       0.617   13.9   14.2 
    ##  5   67.4       3.30    23.3   10.0 
    ##  6   63.1       0.889   23.1   15.6 
    ##  7   64.1       2.05    28.5   15.3 
    ##  8   65.9       4.23    19.8    9.70
    ##  9   63.0       1.33    12.2   14.2 
    ## 10   62.6       0.484   35.1   11.4 
    ## # … with 20 more rows
    ## 
    ## [[6]]
    ## # A tibble: 30 x 4
    ##    normal exponential chisqr uniform
    ##     <dbl>       <dbl>  <dbl>   <dbl>
    ##  1   63.5      6.75     14.6   12.5 
    ##  2   65.8      0.488    14.4   13.9 
    ##  3   63.6      1.61     19.3    7.47
    ##  4   63.6      1.14     25.4   10.8 
    ##  5   66.8      0.237    18.7    8.71
    ##  6   66.2      1.09     15.5   15.0 
    ##  7   67.9      0.0585   20.7    7.28
    ##  8   59.5      2.74     15.4   12.0 
    ##  9   68.3      0.222    33.4    8.89
    ## 10   67.3      1.29     22.5   10.9 
    ## # … with 20 more rows
…
